^D:\USERS\OLEG\GREGORYPROJECTS\PROJECT2\PROJECT2\X64\DEBUG\PROJECT2.OBJ
D:\USERS\OLEG\GREGORYPROJECTS\PROJECT2\X64\DEBUG\PROJECT2.EXE
D:\USERS\OLEG\GREGORYPROJECTS\PROJECT2\PROJECT2\X64\DEBUG\PROJECT2.ILK
D:\USERS\OLEG\GREGORYPROJECTS\PROJECT2\X64\DEBUG\PROJECT2.PDB
