^D:\USERS\OLEG\GREGORYPROJECTS\PROJECT3\PROJECT3\X64\DEBUG\PROJECT3.OBJ
/OUT:"D:\USERS\OLEG\GREGORYPROJECTS\PROJECT3\X64\DEBUG\PROJECT3.EXE" /INCREMENTAL /ILK:"X64\DEBUG\PROJECT3.ILK" /NOLOGO KERNEL32.LIB USER32.LIB GDI32.LIB WINSPOOL.LIB COMDLG32.LIB ADVAPI32.LIB SHELL32.LIB OLE32.LIB OLEAUT32.LIB UUID.LIB ODBC32.LIB ODBCCP32.LIB /MANIFEST /MANIFESTUAC:"level='asInvoker' uiAccess='false'" /manifest:embed /DEBUG /PDB:"D:\USERS\OLEG\GREGORYPROJECTS\PROJECT3\X64\DEBUG\PROJECT3.PDB" /SUBSYSTEM:CONSOLE /TLBID:1 /DYNAMICBASE /NXCOMPAT /IMPLIB:"D:\USERS\OLEG\GREGORYPROJECTS\PROJECT3\X64\DEBUG\PROJECT3.LIB" /MACHINE:X64 X64\DEBUG\PROJECT3.OBJ
^D:\USERS\OLEG\GREGORYPROJECTS\PROJECT3\PROJECT3\X64\DEBUG\PROJECT3.OBJ|D:\USERS\OLEG\GREGORYPROJECTS\PROJECT3\PROJECT3\X64\DEBUG\STACK.OBJ
/OUT:"D:\USERS\OLEG\GREGORYPROJECTS\PROJECT3\X64\DEBUG\PROJECT3.EXE" /INCREMENTAL /ILK:"X64\DEBUG\PROJECT3.ILK" /NOLOGO KERNEL32.LIB USER32.LIB GDI32.LIB WINSPOOL.LIB COMDLG32.LIB ADVAPI32.LIB SHELL32.LIB OLE32.LIB OLEAUT32.LIB UUID.LIB ODBC32.LIB ODBCCP32.LIB /MANIFEST /MANIFESTUAC:"level='asInvoker' uiAccess='false'" /manifest:embed /DEBUG /PDB:"D:\USERS\OLEG\GREGORYPROJECTS\PROJECT3\X64\DEBUG\PROJECT3.PDB" /SUBSYSTEM:CONSOLE /TLBID:1 /DYNAMICBASE /NXCOMPAT /IMPLIB:"D:\USERS\OLEG\GREGORYPROJECTS\PROJECT3\X64\DEBUG\PROJECT3.LIB" /MACHINE:X64 X64\DEBUG\PROJECT3.OBJ
X64\DEBUG\STACK.OBJ
