^D:\USERS\OLEG\GREGORYPROJECTS\PROJECT1\PROJECT1\PROJECT1.CPP
C:\WINDOWS\GLOBALIZATION\SORTING\SORTDEFAULT.NLS
D:\SOFT\VISUAL STUDIO\VC\TOOLS\MSVC\14.30.30705\BIN\HOSTX64\X64\1049\CLUI.DLL
C:\WINDOWS\SYSTEM32\TZRES.DLL
D:\SOFT\VISUAL STUDIO\VC\TOOLS\MSVC\14.30.30705\INCLUDE\IOSTREAM
D:\SOFT\VISUAL STUDIO\VC\TOOLS\MSVC\14.30.30705\INCLUDE\YVALS_CORE.H
D:\SOFT\VISUAL STUDIO\VC\TOOLS\MSVC\14.30.30705\INCLUDE\VCRUNTIME.H
D:\SOFT\VISUAL STUDIO\VC\TOOLS\MSVC\14.30.30705\INCLUDE\SAL.H
D:\SOFT\VISUAL STUDIO\VC\TOOLS\MSVC\14.30.30705\INCLUDE\CONCURRENCYSAL.H
D:\SOFT\VISUAL STUDIO\VC\TOOLS\MSVC\14.30.30705\INCLUDE\VADEFS.H
D:\SOFT\VISUAL STUDIO\VC\TOOLS\MSVC\14.30.30705\INCLUDE\XKEYCHECK.H
D:\SOFT\VISUAL STUDIO\VC\TOOLS\MSVC\14.30.30705\INCLUDE\ISTREAM
D:\SOFT\VISUAL STUDIO\VC\TOOLS\MSVC\14.30.30705\INCLUDE\OSTREAM
D:\SOFT\VISUAL STUDIO\VC\TOOLS\MSVC\14.30.30705\INCLUDE\IOS
D:\SOFT\VISUAL STUDIO\VC\TOOLS\MSVC\14.30.30705\INCLUDE\XLOCNUM
D:\SOFT\VISUAL STUDIO\VC\TOOLS\MSVC\14.30.30705\INCLUDE\CLIMITS
D:\SOFT\VISUAL STUDIO\VC\TOOLS\MSVC\14.30.30705\INCLUDE\LIMITS.H
D:\SOFT\VISUAL STUDIO\VC\TOOLS\MSVC\14.30.30705\INCLUDE\CMATH
D:\SOFT\VISUAL STUDIO\VC\TOOLS\MSVC\14.30.30705\INCLUDE\YVALS.H
D:\WINDOWS KITS\10\INCLUDE\10.0.19041.0\UCRT\CRTDBG.H
D:\WINDOWS KITS\10\INCLUDE\10.0.19041.0\UCRT\CORECRT.H
D:\SOFT\VISUAL STUDIO\VC\TOOLS\MSVC\14.30.30705\INCLUDE\VCRUNTIME_NEW_DEBUG.H
D:\SOFT\VISUAL STUDIO\VC\TOOLS\MSVC\14.30.30705\INCLUDE\VCRUNTIME_NEW.H
D:\SOFT\VISUAL STUDIO\VC\TOOLS\MSVC\14.30.30705\INCLUDE\CRTDEFS.H
D:\SOFT\VISUAL STUDIO\VC\TOOLS\MSVC\14.30.30705\INCLUDE\USE_ANSI.H
D:\SOFT\VISUAL STUDIO\VC\TOOLS\MSVC\14.30.30705\INCLUDE\CSTDLIB
D:\WINDOWS KITS\10\INCLUDE\10.0.19041.0\UCRT\MATH.H
D:\WINDOWS KITS\10\INCLUDE\10.0.19041.0\UCRT\CORECRT_MATH.H
D:\WINDOWS KITS\10\INCLUDE\10.0.19041.0\UCRT\STDLIB.H
D:\WINDOWS KITS\10\INCLUDE\10.0.19041.0\UCRT\CORECRT_MALLOC.H
D:\WINDOWS KITS\10\INCLUDE\10.0.19041.0\UCRT\CORECRT_SEARCH.H
D:\WINDOWS KITS\10\INCLUDE\10.0.19041.0\UCRT\STDDEF.H
D:\WINDOWS KITS\10\INCLUDE\10.0.19041.0\UCRT\CORECRT_WSTDLIB.H
D:\SOFT\VISUAL STUDIO\VC\TOOLS\MSVC\14.30.30705\INCLUDE\XTR1COMMON
D:\SOFT\VISUAL STUDIO\VC\TOOLS\MSVC\14.30.30705\INCLUDE\INTRIN0.H
D:\SOFT\VISUAL STUDIO\VC\TOOLS\MSVC\14.30.30705\INCLUDE\INTRIN0.INL.H
D:\SOFT\VISUAL STUDIO\VC\TOOLS\MSVC\14.30.30705\INCLUDE\CSTDIO
D:\WINDOWS KITS\10\INCLUDE\10.0.19041.0\UCRT\STDIO.H
D:\WINDOWS KITS\10\INCLUDE\10.0.19041.0\UCRT\CORECRT_WSTDIO.H
D:\WINDOWS KITS\10\INCLUDE\10.0.19041.0\UCRT\CORECRT_STDIO_CONFIG.H
D:\SOFT\VISUAL STUDIO\VC\TOOLS\MSVC\14.30.30705\INCLUDE\ITERATOR
D:\SOFT\VISUAL STUDIO\VC\TOOLS\MSVC\14.30.30705\INCLUDE\IOSFWD
D:\SOFT\VISUAL STUDIO\VC\TOOLS\MSVC\14.30.30705\INCLUDE\CSTRING
D:\WINDOWS KITS\10\INCLUDE\10.0.19041.0\UCRT\STRING.H
D:\WINDOWS KITS\10\INCLUDE\10.0.19041.0\UCRT\CORECRT_MEMORY.H
D:\WINDOWS KITS\10\INCLUDE\10.0.19041.0\UCRT\CORECRT_MEMCPY_S.H
D:\WINDOWS KITS\10\INCLUDE\10.0.19041.0\UCRT\ERRNO.H
D:\SOFT\VISUAL STUDIO\VC\TOOLS\MSVC\14.30.30705\INCLUDE\VCRUNTIME_STRING.H
D:\WINDOWS KITS\10\INCLUDE\10.0.19041.0\UCRT\CORECRT_WSTRING.H
D:\SOFT\VISUAL STUDIO\VC\TOOLS\MSVC\14.30.30705\INCLUDE\CWCHAR
D:\WINDOWS KITS\10\INCLUDE\10.0.19041.0\UCRT\WCHAR.H
D:\WINDOWS KITS\10\INCLUDE\10.0.19041.0\UCRT\CORECRT_WCONIO.H
D:\WINDOWS KITS\10\INCLUDE\10.0.19041.0\UCRT\CORECRT_WCTYPE.H
D:\WINDOWS KITS\10\INCLUDE\10.0.19041.0\UCRT\CORECRT_WDIRECT.H
D:\WINDOWS KITS\10\INCLUDE\10.0.19041.0\UCRT\CORECRT_WIO.H
D:\WINDOWS KITS\10\INCLUDE\10.0.19041.0\UCRT\CORECRT_SHARE.H
D:\WINDOWS KITS\10\INCLUDE\10.0.19041.0\UCRT\CORECRT_WPROCESS.H
D:\WINDOWS KITS\10\INCLUDE\10.0.19041.0\UCRT\CORECRT_WTIME.H
D:\WINDOWS KITS\10\INCLUDE\10.0.19041.0\UCRT\SYS\STAT.H
D:\WINDOWS KITS\10\INCLUDE\10.0.19041.0\UCRT\SYS\TYPES.H
D:\SOFT\VISUAL STUDIO\VC\TOOLS\MSVC\14.30.30705\INCLUDE\XSTDDEF
D:\SOFT\VISUAL STUDIO\VC\TOOLS\MSVC\14.30.30705\INCLUDE\CSTDDEF
D:\SOFT\VISUAL STUDIO\VC\TOOLS\MSVC\14.30.30705\INCLUDE\INITIALIZER_LIST
D:\SOFT\VISUAL STUDIO\VC\TOOLS\MSVC\14.30.30705\INCLUDE\XUTILITY
D:\SOFT\VISUAL STUDIO\VC\TOOLS\MSVC\14.30.30705\INCLUDE\UTILITY
D:\SOFT\VISUAL STUDIO\VC\TOOLS\MSVC\14.30.30705\INCLUDE\TYPE_TRAITS
D:\SOFT\VISUAL STUDIO\VC\TOOLS\MSVC\14.30.30705\INCLUDE\CSTDINT
D:\SOFT\VISUAL STUDIO\VC\TOOLS\MSVC\14.30.30705\INCLUDE\STDINT.H
D:\SOFT\VISUAL STUDIO\VC\TOOLS\MSVC\14.30.30705\INCLUDE\STREAMBUF
D:\SOFT\VISUAL STUDIO\VC\TOOLS\MSVC\14.30.30705\INCLUDE\XIOSBASE
D:\WINDOWS KITS\10\INCLUDE\10.0.19041.0\UCRT\SHARE.H
D:\SOFT\VISUAL STUDIO\VC\TOOLS\MSVC\14.30.30705\INCLUDE\SYSTEM_ERROR
D:\SOFT\VISUAL STUDIO\VC\TOOLS\MSVC\14.30.30705\INCLUDE\__MSVC_SYSTEM_ERROR_ABI.HPP
D:\SOFT\VISUAL STUDIO\VC\TOOLS\MSVC\14.30.30705\INCLUDE\CERRNO
D:\SOFT\VISUAL STUDIO\VC\TOOLS\MSVC\14.30.30705\INCLUDE\STDEXCEPT
D:\SOFT\VISUAL STUDIO\VC\TOOLS\MSVC\14.30.30705\INCLUDE\EXCEPTION
D:\WINDOWS KITS\10\INCLUDE\10.0.19041.0\UCRT\MALLOC.H
D:\SOFT\VISUAL STUDIO\VC\TOOLS\MSVC\14.30.30705\INCLUDE\VCRUNTIME_EXCEPTION.H
D:\SOFT\VISUAL STUDIO\VC\TOOLS\MSVC\14.30.30705\INCLUDE\EH.H
D:\WINDOWS KITS\10\INCLUDE\10.0.19041.0\UCRT\CORECRT_TERMINATE.H
D:\SOFT\VISUAL STUDIO\VC\TOOLS\MSVC\14.30.30705\INCLUDE\XSTRING
D:\SOFT\VISUAL STUDIO\VC\TOOLS\MSVC\14.30.30705\INCLUDE\XMEMORY
D:\SOFT\VISUAL STUDIO\VC\TOOLS\MSVC\14.30.30705\INCLUDE\LIMITS
D:\SOFT\VISUAL STUDIO\VC\TOOLS\MSVC\14.30.30705\INCLUDE\CFLOAT
D:\WINDOWS KITS\10\INCLUDE\10.0.19041.0\UCRT\FLOAT.H
D:\SOFT\VISUAL STUDIO\VC\TOOLS\MSVC\14.30.30705\INCLUDE\ISA_AVAILABILITY.H
D:\SOFT\VISUAL STUDIO\VC\TOOLS\MSVC\14.30.30705\INCLUDE\NEW
D:\SOFT\VISUAL STUDIO\VC\TOOLS\MSVC\14.30.30705\INCLUDE\XATOMIC.H
D:\SOFT\VISUAL STUDIO\VC\TOOLS\MSVC\14.30.30705\INCLUDE\XCALL_ONCE.H
D:\SOFT\VISUAL STUDIO\VC\TOOLS\MSVC\14.30.30705\INCLUDE\XERRC.H
D:\SOFT\VISUAL STUDIO\VC\TOOLS\MSVC\14.30.30705\INCLUDE\ATOMIC
D:\SOFT\VISUAL STUDIO\VC\TOOLS\MSVC\14.30.30705\INCLUDE\XTHREADS.H
D:\SOFT\VISUAL STUDIO\VC\TOOLS\MSVC\14.30.30705\INCLUDE\XTIMEC.H
D:\SOFT\VISUAL STUDIO\VC\TOOLS\MSVC\14.30.30705\INCLUDE\CTIME
D:\WINDOWS KITS\10\INCLUDE\10.0.19041.0\UCRT\TIME.H
D:\SOFT\VISUAL STUDIO\VC\TOOLS\MSVC\14.30.30705\INCLUDE\XLOCALE
D:\SOFT\VISUAL STUDIO\VC\TOOLS\MSVC\14.30.30705\INCLUDE\MEMORY
D:\SOFT\VISUAL STUDIO\VC\TOOLS\MSVC\14.30.30705\INCLUDE\TYPEINFO
D:\SOFT\VISUAL STUDIO\VC\TOOLS\MSVC\14.30.30705\INCLUDE\VCRUNTIME_TYPEINFO.H
D:\SOFT\VISUAL STUDIO\VC\TOOLS\MSVC\14.30.30705\INCLUDE\XFACET
D:\SOFT\VISUAL STUDIO\VC\TOOLS\MSVC\14.30.30705\INCLUDE\XLOCINFO
D:\SOFT\VISUAL STUDIO\VC\TOOLS\MSVC\14.30.30705\INCLUDE\__MSVC_XLOCINFO_TYPES.HPP
D:\SOFT\VISUAL STUDIO\VC\TOOLS\MSVC\14.30.30705\INCLUDE\CCTYPE
D:\WINDOWS KITS\10\INCLUDE\10.0.19041.0\UCRT\CTYPE.H
D:\SOFT\VISUAL STUDIO\VC\TOOLS\MSVC\14.30.30705\INCLUDE\CLOCALE
D:\WINDOWS KITS\10\INCLUDE\10.0.19041.0\UCRT\LOCALE.H
