^D:\USERS\OLEG\GREGORYPROJECTS\PROJECT1\PROJECT1\X64\DEBUG\PROJECT1.OBJ
D:\WINDOWS KITS\10\LIB\10.0.19041.0\UM\X64\KERNEL32.LIB
D:\WINDOWS KITS\10\LIB\10.0.19041.0\UM\X64\USER32.LIB
D:\WINDOWS KITS\10\LIB\10.0.19041.0\UM\X64\GDI32.LIB
D:\WINDOWS KITS\10\LIB\10.0.19041.0\UM\X64\WINSPOOL.LIB
D:\WINDOWS KITS\10\LIB\10.0.19041.0\UM\X64\COMDLG32.LIB
D:\WINDOWS KITS\10\LIB\10.0.19041.0\UM\X64\ADVAPI32.LIB
D:\WINDOWS KITS\10\LIB\10.0.19041.0\UM\X64\SHELL32.LIB
D:\WINDOWS KITS\10\LIB\10.0.19041.0\UM\X64\OLE32.LIB
D:\WINDOWS KITS\10\LIB\10.0.19041.0\UM\X64\OLEAUT32.LIB
D:\WINDOWS KITS\10\LIB\10.0.19041.0\UM\X64\UUID.LIB
D:\WINDOWS KITS\10\LIB\10.0.19041.0\UM\X64\ODBC32.LIB
D:\WINDOWS KITS\10\LIB\10.0.19041.0\UM\X64\ODBCCP32.LIB
D:\USERS\OLEG\GREGORYPROJECTS\PROJECT1\PROJECT1\X64\DEBUG\PROJECT1.OBJ
D:\USERS\OLEG\GREGORYPROJECTS\PROJECT1\PROJECT1\X64\DEBUG\PROJECT1.ILK
C:\WINDOWS\SYSTEM32\TZRES.DLL
C:\WINDOWS\GLOBALIZATION\SORTING\SORTDEFAULT.NLS
D:\SOFT\VISUAL STUDIO\VC\TOOLS\MSVC\14.30.30705\LIB\X64\MSVCPRTD.LIB
D:\SOFT\VISUAL STUDIO\VC\TOOLS\MSVC\14.30.30705\LIB\X64\MSVCRTD.LIB
D:\SOFT\VISUAL STUDIO\VC\TOOLS\MSVC\14.30.30705\LIB\X64\OLDNAMES.LIB
D:\SOFT\VISUAL STUDIO\VC\TOOLS\MSVC\14.30.30705\LIB\X64\VCRUNTIMED.LIB
D:\WINDOWS KITS\10\LIB\10.0.19041.0\UCRT\X64\UCRTD.LIB
D:\USERS\OLEG\GREGORYPROJECTS\PROJECT1\PROJECT1\X64\DEBUG\VC143.PDB
